<?xml version="1.0" encoding="utf-8"?>
<!-- Generator: Adobe Illustrator 21.0.2, SVG Export Plug-In . SVG Version: 6.00 Build 0)  -->
<svg version="1.1" id="Layer_1" xmlns="http://www.w3.org/2000/svg" xmlns:xlink="http://www.w3.org/1999/xlink" x="0px" y="0px"
	 viewBox="0 0 2500 1582" style="enable-background:new 0 0 2500 1582;" xml:space="preserve">
<style type="text/css">
	.st0{fill:#FFFFFF;}
	.st1{fill:#73BA25;}
</style>
<path class="st0" d="M2191.6,160.8c77.4,2.7,138.1,67.9,135.5,145.2c-1.4,37.4-17.1,72.1-44.5,97.6c-27.4,25.7-63,38.9-100.6,37.6
	c-77.3-2.8-137.9-67.9-135.4-145.2c1.3-37.4,17-72.2,44.5-97.7C2118.2,172.8,2154.4,159.3,2191.6,160.8L2191.6,160.8z M2290.3,303.1
	c1.8-55.1-41.3-101.3-96.3-103.3c-26.4-1.1-52.2,8.5-71.5,26.7c-19.4,18-30.8,43-31.6,69.4c-1.8,55.1,41.3,101.3,96.2,103.4
	c26.5,0.9,52.3-8.7,71.7-26.8C2278.2,354.5,2289.6,329.5,2290.3,303.1L2290.3,303.1z"/>
<path class="st0" d="M2210.3,249.8c24.5,0,44.3,13.2,44.3,29.6c0,16.2-19.8,29.5-44.3,29.5s-44.2-13.3-44.2-29.5
	C2166.2,263,2185.9,249.8,2210.3,249.8z"/>
<g>
	<path class="st1" d="M2194,199.8c-26.4-1.1-52.2,8.5-71.5,26.7c-19.4,18-30.8,43-31.6,69.4c-1.8,55.1,41.3,101.3,96.2,103.4
		c26.5,0.9,52.3-8.7,71.7-26.8c19.4-18,30.7-43,31.5-69.4C2292.2,248,2249.1,201.7,2194,199.8z M2210.3,308.9
		c-24.5,0-44.2-13.3-44.2-29.5c0-16.4,19.7-29.6,44.2-29.6s44.3,13.2,44.3,29.6C2254.6,295.6,2234.8,308.9,2210.3,308.9z"/>
	<path class="st1" d="M2421.6,434.2c6.3-4.2,11.1-7.7,13.1-8.5l2-3.4c-5.3-33.9-55.9-198.3-94-237.7c-10.6-10.9-19-21.3-36.1-31.4
		C2168.4,72.7,1840.4,24,1825.1,21.9l-2.6,0.7l-1,2.3c0,0-1.3,68-1.4,75.6c-33.6-11.2-277.1-89.9-505.3-97.8
		c-193.5-6.7-457.9-16-831.5,213.6l-11.1,6.9C296.5,332.8,175.1,467.9,111.7,625C91.8,674.4,65,786,91.5,890.9
		c11.5,45.9,32.8,91.9,61.6,133.1c64.8,93.2,173.7,155.1,291,165.6c165.6,14.8,291-59.6,335.6-198.8c30.7-96.1,0-237-117.6-309
		c-95.5-58.6-198.5-45.2-258.1-5.8c-51.7,34.3-81.1,87.7-80.5,146.2c1.2,103.8,90.7,159,154.9,159.1c18.8,0,37.5-3.2,58.7-10.2
		c7.5-2.3,14.7-5,22.4-10l2.4-1.5l1.6-0.9l-0.6,0.2c14.7-9.9,23.6-26.1,23.6-43.5c0-4.8-0.7-9.7-2-14.5
		c-7.5-26.3-33.5-42.2-60.5-37.2l-3.6,0.7l-4.9,1.7l-7.1,2.3c-14.8,3.7-26,4-28.3,4c-7.5-0.5-44.7-11.6-44.7-52.1V820
		c0.1-14.9,6.1-25.3,9.5-31c11.4-18.1,43-35.8,85.5-32c56,4.7,96.2,33.4,122.9,87.4c24.9,50.3,18.3,112.1-16.7,157.5
		c-34.7,45-96.6,64-178.9,55.1c-83-9.2-153.2-56.9-192.4-131.2c-38.5-72.7-40.7-158.9-5.5-225.1c84-158.6,242.8-156.9,329.8-141.9
		c128.8,22.2,245.8,125.4,297.8,262.6c8.3,21.8,12.6,39.2,16.3,55L909,900l145.5,71.2l2,1.4l3.5-0.4l0.6-4.1
		c-0.9-3.3-3-6.3-6.3-47.1c-2.8-36-8.5-135,41.4-184.1c19.2-19.1,48.8-36.1,72.1-41.7c95.4-23.3,219.2-7.1,325,115.1
		c54.5,63.2,81.4,92.1,94.8,105l4.5,4.3l5.6,4c4.3,2.4,181.8,84.1,181.8,84.1l3.6-0.9l0.1-3.9c-1.1-1.3-112.4-145-92.7-263.4
		c15.6-94.4,90.7-86,194.5-74.1c33.9,3.8,72.6,8.3,112.5,9.2c111.5,0.7,231.6-19.7,305.7-52.1c47.9-20.9,78.5-34.8,97.6-52.2
		c6.9-5.6,10.6-15,14.2-24.9l2.6-6.6c3.1-8.1,7.7-25.1,9.6-34.4c0.9-4,1.3-8.6-1.5-10.8l-10.3,1.9l0,0
		c-32.5,19.5-113.7,56.7-189.8,58.2c-94.3,1.9-284.3-94.9-304.2-105.2l-1.8-2.2c-4.8-11.4-33.3-78.8-39.3-93
		c136.8,90.1,250.2,139.9,337,147.5C2314,509.5,2389.4,456.8,2421.6,434.2z M2182,441.2c-77.3-2.8-137.9-67.9-135.4-145.2
		c1.3-37.4,17-72.2,44.5-97.7c27.1-25.5,63.4-39,100.5-37.5c77.4,2.7,138.1,67.9,135.5,145.2v0c-1.4,37.4-17.1,72.1-44.5,97.6
		C2255.2,429.3,2219.6,442.5,2182,441.2z"/>
</g>
</svg>
